{
    "$schema": "http://json-schema.org/draft-04/schema#",
    "$ref": "#/definitions/ConfigurationFile",
    "definitions": {
        "ConfigurationFile": {
            "properties": {
                "gitlab": {
                    "$ref": "#/definitions/gitlab.agent.kascfg.GitLabCF",
                    "additionalProperties": false
                },
                "agent": {
                    "$ref": "#/definitions/gitlab.agent.kascfg.AgentCF",
                    "additionalProperties": false
                },
                "observability": {
                    "$ref": "#/definitions/gitlab.agent.kascfg.ObservabilityCF",
                    "additionalProperties": false
                },
                "gitaly": {
                    "$ref": "#/definitions/gitlab.agent.kascfg.GitalyCF",
                    "additionalProperties": false
                },
                "redis": {
                    "$ref": "#/definitions/gitlab.agent.kascfg.RedisCF",
                    "additionalProperties": false
                },
                "api": {
                    "$ref": "#/definitions/gitlab.agent.kascfg.ApiCF",
                    "additionalProperties": false
                },
                "private_api": {
                    "$ref": "#/definitions/gitlab.agent.kascfg.PrivateApiCF",
                    "additionalProperties": false
                },
                "config": {
                    "$ref": "#/definitions/gitlab.agent.kascfg.ConfigCF",
                    "additionalProperties": false
                }
            },
            "additionalProperties": false,
            "type": "object"
        },
        "gitlab.agent.kascfg.AgentCF": {
            "properties": {
                "listen": {
                    "$ref": "#/definitions/gitlab.agent.kascfg.ListenAgentCF",
                    "additionalProperties": false
                },
                "configuration": {
                    "$ref": "#/definitions/gitlab.agent.kascfg.AgentConfigurationCF",
                    "additionalProperties": false
                },
                "gitops": {
                    "$ref": "#/definitions/gitlab.agent.kascfg.GitopsCF",
                    "additionalProperties": false
                },
                "info_cache_ttl": {
                    "pattern": "^([0-9]+\\.?[0-9]*|\\.[0-9]+)s$",
                    "type": "string",
                    "format": "regex"
                },
                "info_cache_error_ttl": {
                    "pattern": "^([0-9]+\\.?[0-9]*|\\.[0-9]+)s$",
                    "type": "string",
                    "format": "regex"
                },
                "redis_conn_info_ttl": {
                    "pattern": "^([0-9]+\\.?[0-9]*|\\.[0-9]+)s$",
                    "type": "string",
                    "format": "regex"
                },
                "redis_conn_info_refresh": {
                    "pattern": "^([0-9]+\\.?[0-9]*|\\.[0-9]+)s$",
                    "type": "string",
                    "format": "regex"
                },
                "redis_conn_info_gc": {
                    "pattern": "^([0-9]+\\.?[0-9]*|\\.[0-9]+)s$",
                    "type": "string",
                    "format": "regex"
                },
                "kubernetes_api": {
                    "$ref": "#/definitions/gitlab.agent.kascfg.KubernetesApiCF",
                    "additionalProperties": false
                },
                "remote_development": {
                    "$ref": "#/definitions/gitlab.agent.kascfg.RemoteDevelopmentCF",
                    "additionalProperties": false
                }
            },
            "additionalProperties": false,
            "type": "object"
        },
        "gitlab.agent.kascfg.AgentConfigurationCF": {
            "properties": {
                "poll_period": {
                    "pattern": "^([0-9]+\\.?[0-9]*|\\.[0-9]+)s$",
                    "type": "string",
                    "format": "regex"
                },
                "max_configuration_file_size": {
                    "type": "integer"
                }
            },
            "additionalProperties": false,
            "type": "object"
        },
        "gitlab.agent.kascfg.ApiCF": {
            "properties": {
                "listen": {
                    "$ref": "#/definitions/gitlab.agent.kascfg.ListenApiCF",
                    "additionalProperties": false
                }
            },
            "additionalProperties": false,
            "type": "object"
        },
        "gitlab.agent.kascfg.ConfigCF": {
            "properties": {
                "command": {
                    "type": "string"
                }
            },
            "additionalProperties": false,
            "type": "object"
        },
        "gitlab.agent.kascfg.GitLabCF": {
            "properties": {
                "address": {
                    "type": "string"
                },
                "external_url": {
                    "type": "string"
                },
                "authentication_secret_file": {
                    "type": "string"
                },
                "ca_certificate_file": {
                    "type": "string"
                },
                "api_rate_limit": {
                    "$ref": "#/definitions/gitlab.agent.kascfg.TokenBucketRateLimitCF",
                    "additionalProperties": false
                }
            },
            "additionalProperties": false,
            "type": "object",
            "oneOf": [
                {
                    "required": [
                        "external_url"
                    ]
                }
            ]
        },
        "gitlab.agent.kascfg.GitalyCF": {
            "properties": {
                "global_api_rate_limit": {
                    "$ref": "#/definitions/gitlab.agent.kascfg.TokenBucketRateLimitCF",
                    "additionalProperties": false
                },
                "per_server_api_rate_limit": {
                    "$ref": "#/definitions/gitlab.agent.kascfg.TokenBucketRateLimitCF",
                    "additionalProperties": false
                }
            },
            "additionalProperties": false,
            "type": "object"
        },
        "gitlab.agent.kascfg.GitopsCF": {
            "properties": {
                "poll_period": {
                    "pattern": "^([0-9]+\\.?[0-9]*|\\.[0-9]+)s$",
                    "type": "string",
                    "format": "regex"
                },
                "project_info_cache_ttl": {
                    "pattern": "^([0-9]+\\.?[0-9]*|\\.[0-9]+)s$",
                    "type": "string",
                    "format": "regex"
                },
                "project_info_cache_error_ttl": {
                    "pattern": "^([0-9]+\\.?[0-9]*|\\.[0-9]+)s$",
                    "type": "string",
                    "format": "regex"
                },
                "max_manifest_file_size": {
                    "type": "integer"
                },
                "max_total_manifest_file_size": {
                    "type": "integer"
                },
                "max_number_of_paths": {
                    "type": "integer"
                },
                "max_number_of_files": {
                    "type": "integer"
                }
            },
            "additionalProperties": false,
            "type": "object"
        },
        "gitlab.agent.kascfg.GoogleProfilerCF": {
            "properties": {
                "enabled": {
                    "type": "boolean"
                },
                "project_id": {
                    "type": "string"
                },
                "credentials_file": {
                    "type": "string"
                },
                "debug_logging": {
                    "type": "boolean"
                }
            },
            "additionalProperties": false,
            "type": "object"
        },
        "gitlab.agent.kascfg.KubernetesApiCF": {
            "properties": {
                "listen": {
                    "$ref": "#/definitions/gitlab.agent.kascfg.ListenKubernetesApiCF",
                    "additionalProperties": false
                },
                "url_path_prefix": {
                    "type": "string"
                },
                "allowed_agent_cache_ttl": {
                    "pattern": "^([0-9]+\\.?[0-9]*|\\.[0-9]+)s$",
                    "type": "string",
                    "format": "regex"
                },
                "allowed_agent_cache_error_ttl": {
                    "pattern": "^([0-9]+\\.?[0-9]*|\\.[0-9]+)s$",
                    "type": "string",
                    "format": "regex"
                }
            },
            "additionalProperties": false,
            "type": "object"
        },
        "gitlab.agent.kascfg.ListenAgentCF": {
            "properties": {
                "network": {
                    "type": "string"
                },
                "address": {
                    "type": "string"
                },
                "websocket": {
                    "type": "boolean"
                },
                "certificate_file": {
                    "type": "string"
                },
                "key_file": {
                    "type": "string"
                },
                "connections_per_token_per_minute": {
                    "type": "integer"
                },
                "max_connection_age": {
                    "pattern": "^([0-9]+\\.?[0-9]*|\\.[0-9]+)s$",
                    "type": "string",
                    "format": "regex"
                },
                "listen_grace_period": {
                    "pattern": "^([0-9]+\\.?[0-9]*|\\.[0-9]+)s$",
                    "type": "string",
                    "format": "regex"
                }
            },
            "additionalProperties": false,
            "type": "object",
            "oneOf": [
                {
                    "required": [
                        "network"
                    ]
                }
            ]
        },
        "gitlab.agent.kascfg.ListenApiCF": {
            "properties": {
                "network": {
                    "type": "string"
                },
                "address": {
                    "type": "string"
                },
                "authentication_secret_file": {
                    "type": "string"
                },
                "certificate_file": {
                    "type": "string"
                },
                "key_file": {
                    "type": "string"
                },
                "max_connection_age": {
                    "pattern": "^([0-9]+\\.?[0-9]*|\\.[0-9]+)s$",
                    "type": "string",
                    "format": "regex"
                },
                "listen_grace_period": {
                    "pattern": "^([0-9]+\\.?[0-9]*|\\.[0-9]+)s$",
                    "type": "string",
                    "format": "regex"
                }
            },
            "additionalProperties": false,
            "type": "object",
            "oneOf": [
                {
                    "required": [
                        "network"
                    ]
                }
            ]
        },
        "gitlab.agent.kascfg.ListenKubernetesApiCF": {
            "properties": {
                "network": {
                    "type": "string"
                },
                "address": {
                    "type": "string"
                },
                "certificate_file": {
                    "type": "string"
                },
                "key_file": {
                    "type": "string"
                },
                "listen_grace_period": {
                    "pattern": "^([0-9]+\\.?[0-9]*|\\.[0-9]+)s$",
                    "type": "string",
                    "format": "regex"
                },
                "shutdown_grace_period": {
                    "pattern": "^([0-9]+\\.?[0-9]*|\\.[0-9]+)s$",
                    "type": "string",
                    "format": "regex"
                }
            },
            "additionalProperties": false,
            "type": "object",
            "oneOf": [
                {
                    "required": [
                        "network"
                    ]
                }
            ]
        },
        "gitlab.agent.kascfg.ListenPrivateApiCF": {
            "properties": {
                "network": {
                    "type": "string"
                },
                "address": {
                    "type": "string"
                },
                "authentication_secret_file": {
                    "type": "string"
                },
                "certificate_file": {
                    "type": "string"
                },
                "key_file": {
                    "type": "string"
                },
                "max_connection_age": {
                    "pattern": "^([0-9]+\\.?[0-9]*|\\.[0-9]+)s$",
                    "type": "string",
                    "format": "regex"
                },
                "ca_certificate_file": {
                    "type": "string"
                },
                "listen_grace_period": {
                    "pattern": "^([0-9]+\\.?[0-9]*|\\.[0-9]+)s$",
                    "type": "string",
                    "format": "regex"
                }
            },
            "additionalProperties": false,
            "type": "object",
            "oneOf": [
                {
                    "required": [
                        "network"
                    ]
                }
            ]
        },
        "gitlab.agent.kascfg.LivenessProbeCF": {
            "properties": {
                "url_path": {
                    "type": "string"
                }
            },
            "additionalProperties": false,
            "type": "object"
        },
        "gitlab.agent.kascfg.LoggingCF": {
            "properties": {
                "level": {
                    "enum": [
                        "info",
                        "debug",
                        "warn",
                        "error"
                    ],
                    "type": "string"
                },
                "grpc_level": {
                    "enum": [
                        "info",
                        "debug",
                        "warn",
                        "error"
                    ],
                    "type": "string"
                }
            },
            "additionalProperties": false,
            "type": "object",
            "oneOf": [
                {
                    "required": [
                        "grpc_level"
                    ]
                }
            ]
        },
        "gitlab.agent.kascfg.ObservabilityCF": {
            "properties": {
                "usage_reporting_period": {
                    "pattern": "^([0-9]+\\.?[0-9]*|\\.[0-9]+)s$",
                    "type": "string",
                    "format": "regex"
                },
                "listen": {
                    "$ref": "#/definitions/gitlab.agent.kascfg.ObservabilityListenCF",
                    "additionalProperties": false
                },
                "prometheus": {
                    "$ref": "#/definitions/gitlab.agent.kascfg.PrometheusCF",
                    "additionalProperties": false
                },
                "tracing": {
                    "$ref": "#/definitions/gitlab.agent.kascfg.TracingCF",
                    "additionalProperties": false
                },
                "sentry": {
                    "$ref": "#/definitions/gitlab.agent.kascfg.SentryCF",
                    "additionalProperties": false
                },
                "logging": {
                    "$ref": "#/definitions/gitlab.agent.kascfg.LoggingCF",
                    "additionalProperties": false
                },
                "google_profiler": {
                    "$ref": "#/definitions/gitlab.agent.kascfg.GoogleProfilerCF",
                    "additionalProperties": false
                },
                "liveness_probe": {
                    "$ref": "#/definitions/gitlab.agent.kascfg.LivenessProbeCF",
                    "additionalProperties": false
                },
                "readiness_probe": {
                    "$ref": "#/definitions/gitlab.agent.kascfg.ReadinessProbeCF",
                    "additionalProperties": false
                },
                "event_reporting_period": {
                    "pattern": "^([0-9]+\\.?[0-9]*|\\.[0-9]+)s$",
                    "type": "string",
                    "format": "regex"
                }
            },
            "additionalProperties": false,
            "type": "object"
        },
        "gitlab.agent.kascfg.ObservabilityListenCF": {
            "properties": {
                "network": {
                    "type": "string"
                },
                "address": {
                    "type": "string"
                },
                "certificate_file": {
                    "type": "string"
                },
                "key_file": {
                    "type": "string"
                }
            },
            "additionalProperties": false,
            "type": "object",
            "oneOf": [
                {
                    "required": [
                        "network"
                    ]
                },
                {
                    "required": [
                        "certificate_file"
                    ]
                },
                {
                    "required": [
                        "key_file"
                    ]
                }
            ]
        },
        "gitlab.agent.kascfg.PrivateApiCF": {
            "properties": {
                "listen": {
                    "$ref": "#/definitions/gitlab.agent.kascfg.ListenPrivateApiCF",
                    "additionalProperties": false
                }
            },
            "additionalProperties": false,
            "type": "object"
        },
        "gitlab.agent.kascfg.PrometheusCF": {
            "properties": {
                "url_path": {
                    "type": "string"
                }
            },
            "additionalProperties": false,
            "type": "object"
        },
        "gitlab.agent.kascfg.ReadinessProbeCF": {
            "properties": {
                "url_path": {
                    "type": "string"
                }
            },
            "additionalProperties": false,
            "type": "object"
        },
        "gitlab.agent.kascfg.RedisCF": {
            "properties": {
                "server": {
                    "$ref": "#/definitions/gitlab.agent.kascfg.RedisServerCF",
                    "additionalProperties": false
                },
                "sentinel": {
                    "$ref": "#/definitions/gitlab.agent.kascfg.RedisSentinelCF",
                    "additionalProperties": false
                },
                "pool_size": {
                    "type": "integer"
                },
                "dial_timeout": {
                    "pattern": "^([0-9]+\\.?[0-9]*|\\.[0-9]+)s$",
                    "type": "string",
                    "format": "regex"
                },
                "read_timeout": {
                    "pattern": "^([0-9]+\\.?[0-9]*|\\.[0-9]+)s$",
                    "type": "string",
                    "format": "regex"
                },
                "write_timeout": {
                    "pattern": "^([0-9]+\\.?[0-9]*|\\.[0-9]+)s$",
                    "type": "string",
                    "format": "regex"
                },
                "idle_timeout": {
                    "pattern": "^([0-9]+\\.?[0-9]*|\\.[0-9]+)s$",
                    "type": "string",
                    "format": "regex"
                },
                "key_prefix": {
                    "type": "string"
                },
                "username": {
                    "type": "string"
                },
                "password_file": {
                    "type": "string"
                },
                "network": {
                    "type": "string"
                },
                "tls": {
                    "$ref": "#/definitions/gitlab.agent.kascfg.RedisTLSCF",
                    "additionalProperties": false
                },
                "database_index": {
                    "type": "integer"
                },
                "password": {
                    "type": "string"
                },
                "pipeline_multiplex": {
                    "type": "integer"
                }
            },
            "additionalProperties": false,
            "type": "object",
            "oneOf": [
                {
                    "required": [
                        "server"
                    ]
                },
                {
                    "required": [
                        "sentinel"
                    ]
                }
            ]
        },
        "gitlab.agent.kascfg.RedisSentinelCF": {
            "properties": {
                "master_name": {
                    "type": "string"
                },
                "addresses": {
                    "items": {
                        "type": "string"
                    },
                    "minItems": 1,
                    "type": "array"
                },
                "sentinel_password_file": {
                    "type": "string"
                }
            },
            "additionalProperties": false,
            "type": "object"
        },
        "gitlab.agent.kascfg.RedisServerCF": {
            "properties": {
                "address": {
                    "type": "string"
                }
            },
            "additionalProperties": false,
            "type": "object"
        },
        "gitlab.agent.kascfg.RedisTLSCF": {
            "properties": {
                "enabled": {
                    "type": "boolean"
                },
                "certificate_file": {
                    "type": "string"
                },
                "key_file": {
                    "type": "string"
                },
                "ca_certificate_file": {
                    "type": "string"
                }
            },
            "additionalProperties": false,
            "type": "object"
        },
        "gitlab.agent.kascfg.RemoteDevelopmentCF": {
            "properties": {
                "poll_period": {
                    "pattern": "^([0-9]+\\.?[0-9]*|\\.[0-9]+)s$",
                    "type": "string",
                    "format": "regex"
                }
            },
            "additionalProperties": false,
            "type": "object"
        },
        "gitlab.agent.kascfg.SentryCF": {
            "properties": {
                "dsn": {
                    "type": "string"
                },
                "environment": {
                    "type": "string"
                }
            },
            "additionalProperties": false,
            "type": "object"
        },
        "gitlab.agent.kascfg.TokenBucketRateLimitCF": {
            "properties": {
                "refill_rate_per_second": {
                    "type": "number"
                },
                "bucket_size": {
                    "type": "integer"
                }
            },
            "additionalProperties": false,
            "type": "object"
        },
        "gitlab.agent.kascfg.TracingCF": {
            "properties": {
                "otlp_endpoint": {
                    "type": "string"
                },
                "otlp_token_secret_file": {
                    "type": "string"
                },
                "otlp_ca_certificate_file": {
                    "type": "string"
                },
                "otlp_legacy_endpoint": {
                    "type": "string"
                }
            },
            "additionalProperties": false,
            "type": "object",
            "oneOf": [
                {
                    "required": [
                        "otlp_token_secret_file"
                    ]
                },
                {
                    "required": [
                        "otlp_ca_certificate_file"
                    ]
                },
                {
                    "required": [
                        "otlp_legacy_endpoint"
                    ]
                }
            ]
        }
    }
}